{"photos":{"page":1,"pages":1629,"perpage":100,"total":"162872","photo":[{"id":"49686140041","owner":"142732580@N03","secret":"f11c3947ae","server":"65535","farm":66,"title":"Two stray kittens that have decided to make my place their home. Taken on 21\/03\/2020","ispublic":1,"isfriend":0,"isfamily":0},{"id":"49686018317","owner":"187514906@N08","secret":"f39032f27c","server":"65535","farm":66,"title":"\ud83c\udf39RUPERT SANDERSON VERNICE AGA KITTEN HEEL POINTED-TOE FLATS\ud83c\udf39","ispublic":1,"isfriend":0,"isfamily":0},{"id":"49685184188","owner":"187514906@N08","secret":"de1ca34641","server":"65535","farm":66,"title":"\ud83c\udf39RUPERT SANDERSON VERNICE AGA KITTEN HEEL POINTED-TOE FLATS\ud83c\udf39","ispublic":1,"isfriend":0,"isfamily":0},{"id":"49685184168","owner":"187514906@N08","secret":"1da499e0bf","server":"65535","farm":66,"title":"\ud83c\udf39RUPERT SANDERSON VERNICE AGA KITTEN HEEL POINTED-TOE FLATS\ud83c\udf39","ispublic":1,"isfriend":0,"isfamily":0},{"id":"49685184148","owner":"187514906@N08","secret":"e587affd05","server":"65535","farm":66,"title":"\ud83c\udf39RUPERT SANDERSON VERNICE AGA KITTEN HEEL POINTED-TOE FLATS\ud83c\udf39","ispublic":1,"isfriend":0,"isfamily":0},{"id":"49686018272","owner":"187514906@N08","secret":"8fabc5d1b4","server":"65535","farm":66,"title":"\ud83c\udf39RUPERT SANDERSON VERNICE AGA KITTEN HEEL POINTED-TOE FLATS\ud83c\udf39","ispublic":1,"isfriend":0,"isfamily":0},{"id":"49685696991","owner":"33244024@N06","secret":"f47c01f0f1","server":"65535","farm":66,"title":"Cat","ispublic":1,"isfriend":0,"isfamily":0},{"id":"49685814637","owner":"143537090@N02","secret":"8208231626","server":"65535","farm":66,"title":"Brown Tabby Cats","ispublic":1,"isfriend":0,"isfamily":0},{"id":"49685742077","owner":"33244024@N06","secret":"b308478505","server":"65535","farm":66,"title":"Cat","ispublic":1,"isfriend":0,"isfamily":0},{"id":"49685675627","owner":"181966904@N02","secret":"57167db73c","server":"65535","farm":66,"title":"Daddys Kitten","ispublic":1,"isfriend":0,"isfamily":0},{"id":"49685280606","owner":"183852932@N05","secret":"9e46e97329","server":"65535","farm":66,"title":"(insert caption)","ispublic":1,"isfriend":0,"isfamily":0},{"id":"49685009811","owner":"93007130@N04","secret":"6404ae9fa7","server":"65535","farm":66,"title":"The kitten and her favorite cream","ispublic":1,"isfriend":0,"isfamily":0},{"id":"49685193572","owner":"49998540@N03","secret":"40e43bc898","server":"65535","farm":66,"title":"\u3066\u306e\u306a\u304b\u306e\u306d\u3053 #\u306d\u3053 #\u732b #cat #gatto #chat #kitten","ispublic":1,"isfriend":0,"isfamily":0},{"id":"49683881447","owner":"125208863@N02","secret":"405124e49e","server":"65535","farm":66,"title":"81\/366 - Quarantine Cuddles :-)","ispublic":1,"isfriend":0,"isfamily":0},{"id":"49684638522","owner":"83288930@N00","secret":"ecf525dece","server":"65535","farm":66,"title":"Postcrossing US-6611691","ispublic":1,"isfriend":0,"isfamily":0},{"id":"49684396502","owner":"108809965@N07","secret":"7442cdd290","server":"65535","farm":66,"title":"REIGN.- JAEL FLATS\/HEELS","ispublic":1,"isfriend":0,"isfamily":0},{"id":"49683561128","owner":"23835775@N02","secret":"43427824c8","server":"65535","farm":66,"title":"Caturday with Jeffrey!","ispublic":1,"isfriend":0,"isfamily":0},{"id":"49684096361","owner":"154605377@N08","secret":"2e1dd353a8","server":"65535","farm":66,"title":"Persian Kittens","ispublic":1,"isfriend":0,"isfamily":0},{"id":"49684050401","owner":"38941615@N02","secret":"86265f6c41","server":"65535","farm":66,"title":"My beautiful ginger \u2665","ispublic":1,"isfriend":0,"isfamily":0},{"id":"49684015221","owner":"23835775@N02","secret":"28be30a681","server":"65535","farm":66,"title":"Caturday with Little Johnny","ispublic":1,"isfriend":0,"isfamily":0},{"id":"49684249452","owner":"81531162@N07","secret":"b9d3eb1e2e","server":"65535","farm":66,"title":"Candy Kitten for 60L HW sale March 21-22","ispublic":1,"isfriend":0,"isfamily":0},{"id":"49683410773","owner":"22419581@N06","secret":"dd10f9b892","server":"65535","farm":66,"title":"\ud83d\udd1f months old today @ladylunamooncat #stillakitten #housepanther #blackcat #kittens_today #meow #caturdaycuties #caturday #mainecoon #blackmainecoon #cateyes #catportrait #feline #pedigreecat #purebredcat #coonalley #mainecoonsofinstagram #maine","ispublic":1,"isfriend":0,"isfamily":0},{"id":"49683234993","owner":"187476952@N05","secret":"2e21f83161","server":"65535","farm":66,"title":"Sir Ben Thomas attack face","ispublic":1,"isfriend":0,"isfamily":0},{"id":"49683772616","owner":"187476952@N05","secret":"e7a6618988","server":"65535","farm":66,"title":"Sir Ben Thomas epic pose","ispublic":1,"isfriend":0,"isfamily":0},{"id":"49684066882","owner":"187476952@N05","secret":"99631fa81c","server":"65535","farm":66,"title":"Sir Ben Thomas front","ispublic":1,"isfriend":0,"isfamily":0},{"id":"49683233613","owner":"187476952@N05","secret":"04e900ee67","server":"65535","farm":66,"title":"Dark Sir Ben Thomas","ispublic":1,"isfriend":0,"isfamily":0},{"id":"49683771001","owner":"187476952@N05","secret":"0b9f92b528","server":"65535","farm":66,"title":"Sir Ben Thomas profile","ispublic":1,"isfriend":0,"isfamily":0},{"id":"49683232423","owner":"187476952@N05","secret":"7b18247fd5","server":"65535","farm":66,"title":"Sir Ben Thomas","ispublic":1,"isfriend":0,"isfamily":0},{"id":"49683247958","owner":"155567525@N04","secret":"8c50051a09","server":"65535","farm":66,"title":"Skulls and Stripes","ispublic":1,"isfriend":0,"isfamily":0},{"id":"49683785141","owner":"23835775@N02","secret":"34d6f0fd08","server":"65535","farm":66,"title":"Caturday with Big Jimmy","ispublic":1,"isfriend":0,"isfamily":0},{"id":"49683246603","owner":"23835775@N02","secret":"11f1d12af0","server":"65535","farm":66,"title":"Caturday with Big Jimmy","ispublic":1,"isfriend":0,"isfamily":0},{"id":"49683827552","owner":"33057199@N03","secret":"f0aa8fba2e","server":"65535","farm":66,"title":"loCATed","ispublic":1,"isfriend":0,"isfamily":0},{"id":"49683949377","owner":"8185859@N08","secret":"ab0d7a753f","server":"65535","farm":66,"title":"Lilli","ispublic":1,"isfriend":0,"isfamily":0},{"id":"49683545326","owner":"12679771@N05","secret":"3c73fbe86f","server":"65535","farm":66,"title":"Morning 03.21.20","ispublic":1,"isfriend":0,"isfamily":0},{"id":"49683005973","owner":"184667758@N07","secret":"08b56a0018","server":"65535","farm":66,"title":"Delphine and Despina - Welcome in my RL sweet kitten","ispublic":1,"isfriend":0,"isfamily":0},{"id":"49682991838","owner":"186881045@N08","secret":"0c4bee4d55","server":"65535","farm":66,"title":"No Kitten Was Harm","ispublic":1,"isfriend":0,"isfamily":0},{"id":"49683665877","owner":"69326566@N02","secret":"c2fa325e08","server":"65535","farm":66,"title":"","ispublic":1,"isfriend":0,"isfamily":0},{"id":"49683310906","owner":"32923741@N07","secret":"d4f09542d6","server":"65535","farm":66,"title":"When planets collide","ispublic":1,"isfriend":0,"isfamily":0},{"id":"49683310281","owner":"32923741@N07","secret":"846fbb772b","server":"65535","farm":66,"title":"Venus and Phoebe","ispublic":1,"isfriend":0,"isfamily":0},{"id":"49683604072","owner":"32923741@N07","secret":"4ca7129672","server":"65535","farm":66,"title":"Jupiter and Phoebe","ispublic":1,"isfriend":0,"isfamily":0},{"id":"49683488857","owner":"30127322@N00","secret":"86ca71df0b","server":"65535","farm":66,"title":"210\/365","ispublic":1,"isfriend":0,"isfamily":0},{"id":"49683085891","owner":"21227803@N06","secret":"cf9cb7da84","server":"65535","farm":66,"title":"Disparity","ispublic":1,"isfriend":0,"isfamily":0},{"id":"49682849816","owner":"41903519@N07","secret":"14e4b4e474","server":"65535","farm":66,"title":"So long, Old Blue. You took us to visit Steve\u2019s mother, brought us to our new house, carried a puppy, a kitten, and a new baby boy all to their new home. Happy travels with your next family. \ud83d\ude2d \ud83d\ude99","ispublic":1,"isfriend":0,"isfamily":0},{"id":"49682265233","owner":"98062192@N08","secret":"0861dd4046","server":"65535","farm":66,"title":"Manni","ispublic":1,"isfriend":0,"isfamily":0},{"id":"49682076878","owner":"39415781@N06","secret":"14093ed85b","server":"65535","farm":66,"title":"Kitten on the lawn","ispublic":1,"isfriend":0,"isfamily":0},{"id":"49682076528","owner":"39415781@N06","secret":"c472a6845b","server":"65535","farm":66,"title":"Kitten on the lawn","ispublic":1,"isfriend":0,"isfamily":0},{"id":"49682787727","owner":"126718395@N05","secret":"b0008a2746","server":"65535","farm":66,"title":"Kater Leo","ispublic":1,"isfriend":0,"isfamily":0},{"id":"49682787237","owner":"126718395@N05","secret":"a8075da5d9","server":"65535","farm":66,"title":"Kater Leo","ispublic":1,"isfriend":0,"isfamily":0},{"id":"49681875338","owner":"91795305@N08","secret":"9993c41d19","server":"65535","farm":66,"title":"Isis","ispublic":1,"isfriend":0,"isfamily":0},{"id":"49682406841","owner":"91795305@N08","secret":"48086f48fe","server":"65535","farm":66,"title":"Danita","ispublic":1,"isfriend":0,"isfamily":0},{"id":"49682605092","owner":"186567765@N08","secret":"06672607f3","server":"65535","farm":66,"title":"Dream World (Little Post-Editing)","ispublic":1,"isfriend":0,"isfamily":0},{"id":"49681708863","owner":"98062192@N08","secret":"652eb18589","server":"65535","farm":66,"title":"Manni","ispublic":1,"isfriend":0,"isfamily":0},{"id":"49682237556","owner":"98062192@N08","secret":"4903c6134c","server":"65535","farm":66,"title":"Manni","ispublic":1,"isfriend":0,"isfamily":0},{"id":"49681641278","owner":"77654185@N07","secret":"39a3783443","server":"65535","farm":66,"title":"Happy cat","ispublic":1,"isfriend":0,"isfamily":0},{"id":"49682190607","owner":"157460844@N03","secret":"d3a9b6cfde","server":"65535","farm":66,"title":"Pinty-cat","ispublic":1,"isfriend":0,"isfamily":0},{"id":"49681361088","owner":"169620964@N07","secret":"82ecc44a50","server":"65535","farm":66,"title":"IMG_3523","ispublic":1,"isfriend":0,"isfamily":0},{"id":"49682175337","owner":"169620964@N07","secret":"55891f68ac","server":"65535","farm":66,"title":"dakota306","ispublic":1,"isfriend":0,"isfamily":0},{"id":"49681861526","owner":"33244024@N06","secret":"ae4d898653","server":"65535","farm":66,"title":"Cat","ispublic":1,"isfriend":0,"isfamily":0},{"id":"49682106287","owner":"84097270@N00","secret":"451edc2663","server":"65535","farm":66,"title":"Recently Added-263","ispublic":1,"isfriend":0,"isfamily":0},{"id":"49681817556","owner":"84097270@N00","secret":"85dca28f59","server":"65535","farm":66,"title":"Recently Added-259","ispublic":1,"isfriend":0,"isfamily":0},{"id":"49681571986","owner":"169620964@N07","secret":"1bc5542ce2","server":"65535","farm":66,"title":"dakota204","ispublic":1,"isfriend":0,"isfamily":0},{"id":"49681689542","owner":"49998540@N03","secret":"fd1a7b7a0c","server":"65535","farm":66,"title":"\u3042\u3063\u305f\u304b\u3044\u3068\u3053\u308d\u3044\u308b\u306d\u3053 #\u306d\u3053 #\u732b #cat #gatto #chat #kitten","ispublic":1,"isfriend":0,"isfamily":0},{"id":"49680754868","owner":"93293461@N03","secret":"1daf692172","server":"65535","farm":66,"title":"Hello world!","ispublic":1,"isfriend":0,"isfamily":0},{"id":"49680698588","owner":"74113208@N00","secret":"defd9f0acc","server":"0","farm":0,"title":"Original Orange Part 2 of 2","ispublic":1,"isfriend":0,"isfamily":0},{"id":"49680659393","owner":"74113208@N00","secret":"d67eed07f3","server":"0","farm":0,"title":"Original Orange Part 1 of 2","ispublic":1,"isfriend":0,"isfamily":0},{"id":"49681113921","owner":"74113208@N00","secret":"defbed80a5","server":"0","farm":0,"title":"Original Orange 10 min Accelerated","ispublic":1,"isfriend":0,"isfamily":0},{"id":"49680642543","owner":"156243266@N06","secret":"23c496b2a8","server":"65535","farm":66,"title":"Kabut Pagi","ispublic":1,"isfriend":0,"isfamily":0},{"id":"49680641273","owner":"73994251@N02","secret":"7fe78e186f","server":"65535","farm":66,"title":"Read My Lips","ispublic":1,"isfriend":0,"isfamily":0},{"id":"49680528263","owner":"59580107@N04","secret":"c9cc94a4bc","server":"65535","farm":66,"title":"NEW! Dannicka Sweater & Sweatpants - at the Mainstore!","ispublic":1,"isfriend":0,"isfamily":0},{"id":"49681125022","owner":"98669759@N07","secret":"d15ac0d230","server":"65535","farm":66,"title":"Kitten in the market turmoil.","ispublic":1,"isfriend":0,"isfamily":0},{"id":"49680385398","owner":"185223396@N08","secret":"c96e4bbddb","server":"65535","farm":66,"title":"Ginger","ispublic":1,"isfriend":0,"isfamily":0},{"id":"49680903126","owner":"22419581@N06","secret":"aa2c4e1c9d","server":"65535","farm":66,"title":"Today was a long week #workfromhome #remotework #cattenthecurve #exhausted #mainecoon #ineedanap #felinefriday #mood #kitten #meow #cute #sigh #blackcats #mainecoon_feature #olympusinspired #mirrorlessphotography #zuiko25mmf18","ispublic":1,"isfriend":0,"isfamily":0},{"id":"49680367488","owner":"19872565@N00","secret":"fe2d41730a","server":"65535","farm":66,"title":"20110719_17395c","ispublic":1,"isfriend":0,"isfamily":0},{"id":"49680315313","owner":"41301592@N02","secret":"317bea27d6","server":"65535","farm":66,"title":"Charles on the small shed roof.","ispublic":1,"isfriend":0,"isfamily":0},{"id":"49680846556","owner":"41301592@N02","secret":"dc63c531c8","server":"65535","farm":66,"title":"William and Charles on the small shed roof.","ispublic":1,"isfriend":0,"isfamily":0},{"id":"49681136372","owner":"41301592@N02","secret":"5fec539fdc","server":"65535","farm":66,"title":"Edward  on the small shed roof.","ispublic":1,"isfriend":0,"isfamily":0},{"id":"49681136282","owner":"41301592@N02","secret":"ce5581a2df","server":"65535","farm":66,"title":"William and Charles on the small shed roof.","ispublic":1,"isfriend":0,"isfamily":0},{"id":"49681136187","owner":"41301592@N02","secret":"8ed1f5eb9c","server":"65535","farm":66,"title":"William, Charles and Edward bird watching.","ispublic":1,"isfriend":0,"isfamily":0},{"id":"49680846106","owner":"41301592@N02","secret":"bd8d6b8ff7","server":"65535","farm":66,"title":"Fluff, William, Charles and Edward on the small shed roof.","ispublic":1,"isfriend":0,"isfamily":0},{"id":"49680846006","owner":"41301592@N02","secret":"fbe69774f1","server":"65535","farm":66,"title":"William.","ispublic":1,"isfriend":0,"isfamily":0},{"id":"49680314623","owner":"41301592@N02","secret":"e8b3f7b097","server":"65535","farm":66,"title":"Charles watching birds fly by.","ispublic":1,"isfriend":0,"isfamily":0},{"id":"49681135797","owner":"41301592@N02","secret":"0d609754bb","server":"65535","farm":66,"title":"Edward basking in the sunshine.","ispublic":1,"isfriend":0,"isfamily":0},{"id":"49681135692","owner":"41301592@N02","secret":"75f43cfb2d","server":"65535","farm":66,"title":"Fluff enjoying the warm sunshine.","ispublic":1,"isfriend":0,"isfamily":0},{"id":"49680214943","owner":"38941615@N02","secret":"3bd3827637","server":"65535","farm":66,"title":"Cat","ispublic":1,"isfriend":0,"isfamily":0},{"id":"49680204588","owner":"75979268@N05","secret":"3502f54d04","server":"65535","farm":66,"title":"kittens","ispublic":1,"isfriend":0,"isfamily":0},{"id":"49680939477","owner":"154605377@N08","secret":"b85a3c5373","server":"65535","farm":66,"title":"Doll Face Persian Kitten","ispublic":1,"isfriend":0,"isfamily":0},{"id":"49680572506","owner":"37700634@N03","secret":"20638de7ee","server":"65535","farm":66,"title":"kitten and kids","ispublic":1,"isfriend":0,"isfamily":0},{"id":"49679945598","owner":"94846844@N04","secret":"056552aff5","server":"65535","farm":66,"title":"What Makes Noah Happy...","ispublic":1,"isfriend":0,"isfamily":0},{"id":"49678999497","owner":"8740272@N04","secret":"05e7d4a363","server":"65535","farm":66,"title":"Happy Spring Equinox \u263c","ispublic":1,"isfriend":0,"isfamily":0},{"id":"49679842508","owner":"41429983@N06","secret":"626a1dba28","server":"65535","farm":66,"title":"The Lounge Kittens","ispublic":1,"isfriend":0,"isfamily":0},{"id":"49679820848","owner":"38941615@N02","secret":"0e0c68ea41","server":"65535","farm":66,"title":"Cat","ispublic":1,"isfriend":0,"isfamily":0},{"id":"49680444777","owner":"21482729@N07","secret":"11aae97b43","server":"65535","farm":66,"title":"Un angolino tranquillo per il gatto","ispublic":1,"isfriend":0,"isfamily":0},{"id":"49680294982","owner":"187528870@N04","secret":"f6a502fb87","server":"65535","farm":66,"title":"kittens-cat-cat-puppy-rush-45170","ispublic":1,"isfriend":0,"isfamily":0},{"id":"49679384643","owner":"146039258@N02","secret":"e9f51de072","server":"65535","farm":66,"title":"Un peu de rousseur dans ce monde de brutes","ispublic":1,"isfriend":0,"isfamily":0},{"id":"49679893866","owner":"187583045@N08","secret":"fdc8f818b7","server":"65535","farm":66,"title":"The Truth About Cute Stock Photo Is About To Be Revealed | Cute Stock Photo","ispublic":1,"isfriend":0,"isfamily":0},{"id":"49679787166","owner":"63189170@N04","secret":"209444a080","server":"65535","farm":66,"title":"handmade Lucky Cat \u5e78\u904b\u306a\u732b decor,DIY dollhouse, Japanese style dollhouse,handmade fortune cat, miniature,handmade home decor, handmade art dolls, gift and home decor ideas.","ispublic":1,"isfriend":0,"isfamily":0},{"id":"49679700041","owner":"34425351@N07","secret":"f97b4c860a","server":"65535","farm":66,"title":"Scan-200320-0006","ispublic":1,"isfriend":0,"isfamily":0},{"id":"49679694026","owner":"129180454@N04","secret":"4426524c09","server":"65535","farm":66,"title":"Purebred red Maine Coon cat at home","ispublic":1,"isfriend":0,"isfamily":0},{"id":"49679765702","owner":"159088768@N06","secret":"d1836fd599","server":"65535","farm":66,"title":"Kitten","ispublic":1,"isfriend":0,"isfamily":0},{"id":"49679474721","owner":"159088768@N06","secret":"5253fe6f6f","server":"65535","farm":66,"title":"kitten","ispublic":1,"isfriend":0,"isfamily":0}]},"stat":"ok"}
